{
  "data": {
    "repository": {
      "id": "R_kgDOGd0nuw",
      "openPullRequests": {
        "totalCount": 12,
        "pageInfo": {
          "hasPreviousPage": false,
          "hasNextPage": false,
          "startCursor": "Y3Vyc29yOnYyOpK5MjAyMi0wNS0yNVQwMzowOTozMC0wNTowMM44bRAe",
          "endCursor": "Y3Vyc29yOnYyOpK5MjAyMi0wMi0xNlQxNzozNToxNi0wNjowMM4y9R9y",
          "__typename": "PageInfo"
        },
        "nodes": [
          {
            "id": "PR_kwDOGd0nu844W-RM",
            "author": { "login": "iansamz", "__typename": "User" },
            "comments": {
              "totalCount": 0,
              "__typename": "IssueCommentConnection"
            },
            "labels": {
              "totalCount": 0,
              "nodes": [],
              "__typename": "LabelConnection"
            },
            "closed": false,
            "closedAt": null,
            "merged": false,
            "mergedAt": null,
            "title": "[Next + React Query + Tailwind] Update readme for local and deployment",
            "number": 304,
            "createdAt": "2022-05-24T12:10:08Z",
            "__typename": "PullRequest"
          },
          {
            "id": "PR_kwDOGd0nu844Noy2",
            "author": { "login": "vyktoremario", "__typename": "User" },
            "comments": {
              "totalCount": 0,
              "__typename": "IssueCommentConnection"
            },
            "labels": {
              "totalCount": 0,
              "nodes": [],
              "__typename": "LabelConnection"
            },
            "closed": false,
            "closedAt": null,
            "merged": false,
            "mergedAt": null,
            "title": "Update style repo landing page",
            "number": 300,
            "createdAt": "2022-05-20T20:17:44Z",
            "__typename": "PullRequest"
          },
          {
            "id": "PR_kwDOGd0nu844Mx1D",
            "author": { "login": "markshenouda", "__typename": "User" },
            "comments": {
              "totalCount": 0,
              "__typename": "IssueCommentConnection"
            },
            "labels": {
              "totalCount": 0,
              "nodes": [],
              "__typename": "LabelConnection"
            },
            "closed": false,
            "closedAt": null,
            "merged": false,
            "mergedAt": null,
            "title": "feat: setup react context",
            "number": 299,
            "createdAt": "2022-05-20T15:34:10Z",
            "__typename": "PullRequest"
          },
          {
            "id": "PR_kwDOGd0nu844JiDC",
            "author": { "login": "WillHutt", "__typename": "User" },
            "comments": {
              "totalCount": 0,
              "__typename": "IssueCommentConnection"
            },
            "labels": {
              "totalCount": 0,
              "nodes": [],
              "__typename": "LabelConnection"
            },
            "closed": false,
            "closedAt": null,
            "merged": false,
            "mergedAt": null,
            "title": "feat: initial deployment for spike",
            "number": 296,
            "createdAt": "2022-05-19T21:11:06Z",
            "__typename": "PullRequest"
          },
          {
            "id": "PR_kwDOGd0nu843znB5",
            "author": { "login": "jhmsly", "__typename": "User" },
            "comments": {
              "totalCount": 0,
              "__typename": "IssueCommentConnection"
            },
            "labels": {
              "totalCount": 0,
              "nodes": [],
              "__typename": "LabelConnection"
            },
            "closed": false,
            "closedAt": null,
            "merged": false,
            "mergedAt": null,
            "title": "feat: Extended sidebar component to accept array of links and title p…",
            "number": 282,
            "createdAt": "2022-05-13T20:11:41Z",
            "__typename": "PullRequest"
          },
          {
            "id": "PR_kwDOGd0nu843u7rA",
            "author": { "login": "BrettZeidler", "__typename": "User" },
            "comments": {
              "totalCount": 0,
              "__typename": "IssueCommentConnection"
            },
            "labels": {
              "totalCount": 0,
              "nodes": [],
              "__typename": "LabelConnection"
            },
            "closed": false,
            "closedAt": null,
            "merged": false,
            "mergedAt": null,
            "title": "[Cypress] Add Cypress and stub auth for further e2e testing",
            "number": 280,
            "createdAt": "2022-05-12T16:31:25Z",
            "__typename": "PullRequest"
          },
          {
            "id": "PR_kwDOGd0nu841gBLo",
            "author": { "login": "hdJerry", "__typename": "User" },
            "comments": {
              "totalCount": 0,
              "__typename": "IssueCommentConnection"
            },
            "labels": {
              "totalCount": 0,
              "nodes": [],
              "__typename": "LabelConnection"
            },
            "closed": false,
            "closedAt": null,
            "merged": false,
            "mergedAt": null,
            "title": "Cra rxjs/issue tab view",
            "number": 215,
            "createdAt": "2022-04-01T16:10:58Z",
            "__typename": "PullRequest"
          },
          {
            "id": "PR_kwDOGd0nu840l-V8",
            "author": { "login": "AllanJeremy", "__typename": "User" },
            "comments": {
              "totalCount": 0,
              "__typename": "IssueCommentConnection"
            },
            "labels": {
              "totalCount": 0,
              "nodes": [],
              "__typename": "LabelConnection"
            },
            "closed": false,
            "closedAt": null,
            "merged": false,
            "mergedAt": null,
            "title": "Improved Documentation for Vue3 + TS + Quasar",
            "number": 212,
            "createdAt": "2022-03-17T11:39:56Z",
            "__typename": "PullRequest"
          },
          {
            "id": "PR_kwDOGd0nu840TjqE",
            "author": { "login": "AllanJeremy", "__typename": "User" },
            "comments": {
              "totalCount": 0,
              "__typename": "IssueCommentConnection"
            },
            "labels": {
              "totalCount": 1,
              "nodes": [
                {
                  "color": "FA3C07",
                  "name": "WIP DO NOT MERGE",
                  "__typename": "Label"
                }
              ],
              "__typename": "LabelConnection"
            },
            "closed": false,
            "closedAt": null,
            "merged": false,
            "mergedAt": null,
            "title": "[WIP] Vue3 ts quasar/feat/get profile info (#137)",
            "number": 211,
            "createdAt": "2022-03-11T15:10:42Z",
            "__typename": "PullRequest"
          },
          {
            "id": "PR_kwDOGd0nu840NPgp",
            "author": { "login": "WillHutt", "__typename": "User" },
            "comments": {
              "totalCount": 3,
              "__typename": "IssueCommentConnection"
            },
            "labels": {
              "totalCount": 0,
              "nodes": [],
              "__typename": "LabelConnection"
            },
            "closed": false,
            "closedAt": null,
            "merged": false,
            "mergedAt": null,
            "title": "feat: adds user gists",
            "number": 207,
            "createdAt": "2022-03-10T00:59:46Z",
            "__typename": "PullRequest"
          },
          {
            "id": "PR_kwDOGd0nu84z47NX",
            "author": { "login": "AllanJeremy", "__typename": "User" },
            "comments": {
              "totalCount": 0,
              "__typename": "IssueCommentConnection"
            },
            "labels": {
              "totalCount": 1,
              "nodes": [
                {
                  "color": "a2eeef",
                  "name": "enhancement",
                  "__typename": "Label"
                }
              ],
              "__typename": "LabelConnection"
            },
            "closed": false,
            "closedAt": null,
            "merged": false,
            "mergedAt": null,
            "title": "Vue3 + TS + Quasar - Get user top repos",
            "number": 180,
            "createdAt": "2022-03-03T12:54:32Z",
            "__typename": "PullRequest"
          },
          {
            "id": "PR_kwDOGd0nu84y9R9y",
            "author": { "login": "dustinsgoodman", "__typename": "User" },
            "comments": {
              "totalCount": 0,
              "__typename": "IssueCommentConnection"
            },
            "labels": {
              "totalCount": 0,
              "nodes": [],
              "__typename": "LabelConnection"
            },
            "closed": false,
            "closedAt": null,
            "merged": false,
            "mergedAt": null,
            "title": "fix environment variables and CORS issues",
            "number": 149,
            "createdAt": "2022-02-16T23:35:16Z",
            "__typename": "PullRequest"
          }
        ],
        "__typename": "PullRequestConnection"
      },
      "closedPullRequests": {
        "totalCount": 134,
        "pageInfo": {
          "hasPreviousPage": false,
          "hasNextPage": true,
          "startCursor": "Y3Vyc29yOnYyOpK5MjAyMi0wNS0yNVQxMDoyOToyMi0wNTowMM44dHcg",
          "endCursor": "Y3Vyc29yOnYyOpK5MjAyMi0wNS0wNlQxMjoyODo1OS0wNTowMM43bZ9K",
          "__typename": "PageInfo"
        },
        "nodes": [
          {
            "id": "PR_kwDOGd0nu844dHcg",
            "author": { "login": "lindakatcodes", "__typename": "User" },
            "comments": {
              "totalCount": 0,
              "__typename": "IssueCommentConnection"
            },
            "labels": {
              "totalCount": 0,
              "nodes": [],
              "__typename": "LabelConnection"
            },
            "closed": true,
            "closedAt": "2022-05-25T15:29:35Z",
            "merged": true,
            "mergedAt": "2022-05-25T15:29:35Z",
            "title": "fix: fix dist folder for angular ngrx",
            "number": 312,
            "createdAt": "2022-05-25T15:29:22Z",
            "__typename": "PullRequest"
          },
          {
            "id": "PR_kwDOGd0nu844dFte",
            "author": { "login": "lindakatcodes", "__typename": "User" },
            "comments": {
              "totalCount": 0,
              "__typename": "IssueCommentConnection"
            },
            "labels": {
              "totalCount": 0,
              "nodes": [],
              "__typename": "LabelConnection"
            },
            "closed": true,
            "closedAt": "2022-05-25T15:23:59Z",
            "merged": true,
            "mergedAt": "2022-05-25T15:23:59Z",
            "title": "[Angular - NgRx - SCSS] update amplify yaml for angular ngrx project",
            "number": 311,
            "createdAt": "2022-05-25T15:22:56Z",
            "__typename": "PullRequest"
          },
          {
            "id": "PR_kwDOGd0nu844W2Qy",
            "author": { "login": "iansamz", "__typename": "User" },
            "comments": {
              "totalCount": 0,
              "__typename": "IssueCommentConnection"
            },
            "labels": {
              "totalCount": 0,
              "nodes": [],
              "__typename": "LabelConnection"
            },
            "closed": true,
            "closedAt": "2022-05-24T17:23:09Z",
            "merged": true,
            "mergedAt": "2022-05-24T17:23:09Z",
            "title": "[Next + React Query + Tailwind] Remove Empty README Component from sub-pages",
            "number": 302,
            "createdAt": "2022-05-24T11:38:06Z",
            "__typename": "PullRequest"
          },
          {
            "id": "PR_kwDOGd0nu844Wuom",
            "author": { "login": "iansamz", "__typename": "User" },
            "comments": {
              "totalCount": 0,
              "__typename": "IssueCommentConnection"
            },
            "labels": {
              "totalCount": 0,
              "nodes": [],
              "__typename": "LabelConnection"
            },
            "closed": true,
            "closedAt": "2022-05-24T17:33:58Z",
            "merged": true,
            "mergedAt": "2022-05-24T17:33:57Z",
            "title": "[Next + React Query + Tailwind] Fix tab focus lost when not at root level of repo",
            "number": 301,
            "createdAt": "2022-05-24T11:05:40Z",
            "__typename": "PullRequest"
          },
          {
            "id": "PR_kwDOGd0nu844MCzx",
            "author": { "login": "tyrelchambers", "__typename": "User" },
            "comments": {
              "totalCount": 0,
              "__typename": "IssueCommentConnection"
            },
            "labels": {
              "totalCount": 0,
              "nodes": [],
              "__typename": "LabelConnection"
            },
            "closed": true,
            "closedAt": "2022-05-23T14:49:19Z",
            "merged": true,
            "mergedAt": "2022-05-23T14:49:18Z",
            "title": "Sort repos by name and stars",
            "number": 298,
            "createdAt": "2022-05-20T12:43:35Z",
            "__typename": "PullRequest"
          },
          {
            "id": "PR_kwDOGd0nu844LhwF",
            "author": { "login": "iansamz", "__typename": "User" },
            "comments": {
              "totalCount": 0,
              "__typename": "IssueCommentConnection"
            },
            "labels": {
              "totalCount": 0,
              "nodes": [],
              "__typename": "LabelConnection"
            },
            "closed": true,
            "closedAt": "2022-05-23T19:32:09Z",
            "merged": true,
            "mergedAt": "2022-05-23T19:32:09Z",
            "title": "[Angular + Apollo + Tailwind] Fix Previous Button Pagination",
            "number": 297,
            "createdAt": "2022-05-20T10:24:47Z",
            "__typename": "PullRequest"
          },
          {
            "id": "PR_kwDOGd0nu844DSiB",
            "author": { "login": "vyktoremario", "__typename": "User" },
            "comments": {
              "totalCount": 0,
              "__typename": "IssueCommentConnection"
            },
            "labels": {
              "totalCount": 0,
              "nodes": [],
              "__typename": "LabelConnection"
            },
            "closed": true,
            "closedAt": "2022-05-18T20:17:31Z",
            "merged": true,
            "mergedAt": "2022-05-18T20:17:31Z",
            "title": "Fixed the dashboard background color",
            "number": 295,
            "createdAt": "2022-05-18T20:10:09Z",
            "__typename": "PullRequest"
          },
          {
            "id": "PR_kwDOGd0nu844DGAr",
            "author": { "login": "iansamz", "__typename": "User" },
            "comments": {
              "totalCount": 0,
              "__typename": "IssueCommentConnection"
            },
            "labels": {
              "totalCount": 0,
              "nodes": [],
              "__typename": "LabelConnection"
            },
            "closed": true,
            "closedAt": "2022-05-19T16:08:20Z",
            "merged": true,
            "mergedAt": "2022-05-19T16:08:20Z",
            "title": "[Angular + Apollo + Tailwind]: Fix User Gists Error",
            "number": 294,
            "createdAt": "2022-05-18T19:14:02Z",
            "__typename": "PullRequest"
          },
          {
            "id": "PR_kwDOGd0nu844DAQP",
            "author": { "login": "vyktoremario", "__typename": "User" },
            "comments": {
              "totalCount": 0,
              "__typename": "IssueCommentConnection"
            },
            "labels": {
              "totalCount": 0,
              "nodes": [],
              "__typename": "LabelConnection"
            },
            "closed": true,
            "closedAt": "2022-05-19T16:18:11Z",
            "merged": true,
            "mergedAt": "2022-05-19T16:18:11Z",
            "title": "[CRA-RxJS-SC] Updated the login page style",
            "number": 293,
            "createdAt": "2022-05-18T18:42:22Z",
            "__typename": "PullRequest"
          },
          {
            "id": "PR_kwDOGd0nu843-to9",
            "author": { "login": "iansamz", "__typename": "User" },
            "comments": {
              "totalCount": 0,
              "__typename": "IssueCommentConnection"
            },
            "labels": {
              "totalCount": 1,
              "nodes": [
                {
                  "color": "FA3C07",
                  "name": "WIP DO NOT MERGE",
                  "__typename": "Label"
                }
              ],
              "__typename": "LabelConnection"
            },
            "closed": true,
            "closedAt": "2022-05-20T08:22:34Z",
            "merged": false,
            "mergedAt": null,
            "title": "[Angular + Apollo + Tailwind] Fix Previopus Button Pagination",
            "number": 290,
            "createdAt": "2022-05-17T19:19:53Z",
            "__typename": "PullRequest"
          },
          {
            "id": "PR_kwDOGd0nu843-s-1",
            "author": { "login": "WillHutt", "__typename": "User" },
            "comments": {
              "totalCount": 1,
              "__typename": "IssueCommentConnection"
            },
            "labels": {
              "totalCount": 0,
              "nodes": [],
              "__typename": "LabelConnection"
            },
            "closed": true,
            "closedAt": "2022-05-18T16:36:05Z",
            "merged": true,
            "mergedAt": "2022-05-18T16:36:05Z",
            "title": "fix: resolves README showing on sub-pages",
            "number": 289,
            "createdAt": "2022-05-17T19:16:28Z",
            "__typename": "PullRequest"
          },
          {
            "id": "PR_kwDOGd0nu8433Z5Q",
            "author": { "login": "iansamz", "__typename": "User" },
            "comments": {
              "totalCount": 0,
              "__typename": "IssueCommentConnection"
            },
            "labels": {
              "totalCount": 0,
              "nodes": [],
              "__typename": "LabelConnection"
            },
            "closed": true,
            "closedAt": "2022-05-18T19:17:12Z",
            "merged": true,
            "mergedAt": "2022-05-18T19:17:12Z",
            "title": "[Angular + Apollo + Tailwind] Fix PR Page",
            "number": 287,
            "createdAt": "2022-05-16T09:49:26Z",
            "__typename": "PullRequest"
          },
          {
            "id": "PR_kwDOGd0nu843294h",
            "author": { "login": "vyktoremario", "__typename": "User" },
            "comments": {
              "totalCount": 0,
              "__typename": "IssueCommentConnection"
            },
            "labels": {
              "totalCount": 0,
              "nodes": [],
              "__typename": "LabelConnection"
            },
            "closed": true,
            "closedAt": "2022-05-17T07:54:57Z",
            "merged": true,
            "mergedAt": "2022-05-17T07:54:57Z",
            "title": "Fixed the language menu filter issue",
            "number": 284,
            "createdAt": "2022-05-16T07:53:40Z",
            "__typename": "PullRequest"
          },
          {
            "id": "PR_kwDOGd0nu84326J8",
            "author": { "login": "vyktoremario", "__typename": "User" },
            "comments": {
              "totalCount": 0,
              "__typename": "IssueCommentConnection"
            },
            "labels": {
              "totalCount": 0,
              "nodes": [],
              "__typename": "LabelConnection"
            },
            "closed": true,
            "closedAt": "2022-05-17T07:55:17Z",
            "merged": true,
            "mergedAt": "2022-05-17T07:55:17Z",
            "title": "Resolved gist not opening properly",
            "number": 283,
            "createdAt": "2022-05-16T07:36:09Z",
            "__typename": "PullRequest"
          },
          {
            "id": "PR_kwDOGd0nu843u56n",
            "author": { "login": "vyktoremario", "__typename": "User" },
            "comments": {
              "totalCount": 0,
              "__typename": "IssueCommentConnection"
            },
            "labels": {
              "totalCount": 0,
              "nodes": [],
              "__typename": "LabelConnection"
            },
            "closed": true,
            "closedAt": "2022-05-13T16:27:09Z",
            "merged": true,
            "mergedAt": "2022-05-13T16:27:08Z",
            "title": "Added issues and PR to open tab on github",
            "number": 279,
            "createdAt": "2022-05-12T16:23:33Z",
            "__typename": "PullRequest"
          },
          {
            "id": "PR_kwDOGd0nu843uiuQ",
            "author": { "login": "WillHutt", "__typename": "User" },
            "comments": {
              "totalCount": 0,
              "__typename": "IssueCommentConnection"
            },
            "labels": {
              "totalCount": 0,
              "nodes": [],
              "__typename": "LabelConnection"
            },
            "closed": true,
            "closedAt": "2022-05-12T20:59:49Z",
            "merged": true,
            "mergedAt": "2022-05-12T20:59:49Z",
            "title": "refactor: tweaks user profile information",
            "number": 278,
            "createdAt": "2022-05-12T14:55:05Z",
            "__typename": "PullRequest"
          },
          {
            "id": "PR_kwDOGd0nu843uODu",
            "author": { "login": "iansamz", "__typename": "User" },
            "comments": {
              "totalCount": 0,
              "__typename": "IssueCommentConnection"
            },
            "labels": {
              "totalCount": 0,
              "nodes": [],
              "__typename": "LabelConnection"
            },
            "closed": true,
            "closedAt": "2022-05-13T18:20:46Z",
            "merged": true,
            "mergedAt": "2022-05-13T18:20:46Z",
            "title": "[Angular-Apollo-Tailwind]: Add error handling for Apollo requests",
            "number": 277,
            "createdAt": "2022-05-12T13:48:43Z",
            "__typename": "PullRequest"
          },
          {
            "id": "PR_kwDOGd0nu843t8iT",
            "author": { "login": "vyktoremario", "__typename": "User" },
            "comments": {
              "totalCount": 0,
              "__typename": "IssueCommentConnection"
            },
            "labels": {
              "totalCount": 0,
              "nodes": [],
              "__typename": "LabelConnection"
            },
            "closed": true,
            "closedAt": "2022-05-12T15:18:54Z",
            "merged": true,
            "mergedAt": "2022-05-12T15:18:53Z",
            "title": "fixed tab focus only showing on root level",
            "number": 276,
            "createdAt": "2022-05-12T12:48:47Z",
            "__typename": "PullRequest"
          },
          {
            "id": "PR_kwDOGd0nu843s87w",
            "author": { "login": "vyktoremario", "__typename": "User" },
            "comments": {
              "totalCount": 0,
              "__typename": "IssueCommentConnection"
            },
            "labels": {
              "totalCount": 0,
              "nodes": [],
              "__typename": "LabelConnection"
            },
            "closed": true,
            "closedAt": "2022-05-12T15:20:58Z",
            "merged": true,
            "mergedAt": "2022-05-12T15:20:58Z",
            "title": "Fixed the caret icon bug",
            "number": 275,
            "createdAt": "2022-05-12T08:28:13Z",
            "__typename": "PullRequest"
          },
          {
            "id": "PR_kwDOGd0nu843rUnm",
            "author": { "login": "iansamz", "__typename": "User" },
            "comments": {
              "totalCount": 0,
              "__typename": "IssueCommentConnection"
            },
            "labels": {
              "totalCount": 0,
              "nodes": [],
              "__typename": "LabelConnection"
            },
            "closed": true,
            "closedAt": "2022-05-11T21:07:25Z",
            "merged": true,
            "mergedAt": "2022-05-11T21:07:25Z",
            "title": "[Angular-Apollo-Tailwind] Fix Tailwind Pseudo Class Issues",
            "number": 273,
            "createdAt": "2022-05-11T20:11:37Z",
            "__typename": "PullRequest"
          },
          {
            "id": "PR_kwDOGd0nu843m3cG",
            "author": { "login": "BrettZeidler", "__typename": "User" },
            "comments": {
              "totalCount": 1,
              "__typename": "IssueCommentConnection"
            },
            "labels": {
              "totalCount": 0,
              "nodes": [],
              "__typename": "LabelConnection"
            },
            "closed": true,
            "closedAt": "2022-05-10T22:35:58Z",
            "merged": true,
            "mergedAt": "2022-05-10T22:35:58Z",
            "title": "[Angular-Apollo-Tailwind] Run yarn generate in amplify deploy",
            "number": 261,
            "createdAt": "2022-05-10T22:14:25Z",
            "__typename": "PullRequest"
          },
          {
            "id": "PR_kwDOGd0nu843knwb",
            "author": { "login": "iansamz", "__typename": "User" },
            "comments": {
              "totalCount": 1,
              "__typename": "IssueCommentConnection"
            },
            "labels": {
              "totalCount": 0,
              "nodes": [],
              "__typename": "LabelConnection"
            },
            "closed": true,
            "closedAt": "2022-05-13T18:22:53Z",
            "merged": true,
            "mergedAt": "2022-05-13T18:22:53Z",
            "title": "[Angular-Apollo-Tailwind]: Pagination ",
            "number": 252,
            "createdAt": "2022-05-10T12:19:55Z",
            "__typename": "PullRequest"
          },
          {
            "id": "PR_kwDOGd0nu843bzBz",
            "author": { "login": "tyrelchambers", "__typename": "User" },
            "comments": {
              "totalCount": 0,
              "__typename": "IssueCommentConnection"
            },
            "labels": {
              "totalCount": 0,
              "nodes": [],
              "__typename": "LabelConnection"
            },
            "closed": true,
            "closedAt": "2022-05-06T19:44:30Z",
            "merged": true,
            "mergedAt": "2022-05-06T19:44:29Z",
            "title": "update login page",
            "number": 250,
            "createdAt": "2022-05-06T19:39:12Z",
            "__typename": "PullRequest"
          },
          {
            "id": "PR_kwDOGd0nu843bp3V",
            "author": { "login": "tyrelchambers", "__typename": "User" },
            "comments": {
              "totalCount": 0,
              "__typename": "IssueCommentConnection"
            },
            "labels": {
              "totalCount": 0,
              "nodes": [],
              "__typename": "LabelConnection"
            },
            "closed": true,
            "closedAt": "2022-05-06T19:30:27Z",
            "merged": true,
            "mergedAt": "2022-05-06T19:30:26Z",
            "title": "rename remix folder to remix-gql-tailwind",
            "number": 249,
            "createdAt": "2022-05-06T18:42:18Z",
            "__typename": "PullRequest"
          },
          {
            "id": "PR_kwDOGd0nu843bZ9K",
            "author": { "login": "BrettZeidler", "__typename": "User" },
            "comments": {
              "totalCount": 0,
              "__typename": "IssueCommentConnection"
            },
            "labels": {
              "totalCount": 0,
              "nodes": [],
              "__typename": "LabelConnection"
            },
            "closed": true,
            "closedAt": "2022-05-09T15:21:18Z",
            "merged": true,
            "mergedAt": "2022-05-09T15:21:18Z",
            "title": "[Angular-Apollo-Tailwind] Resolve second level and beyond file tree rendering issues",
            "number": 248,
            "createdAt": "2022-05-06T17:28:59Z",
            "__typename": "PullRequest"
          }
        ],
        "__typename": "PullRequestConnection"
      },
      "__typename": "Repository"
    }
  }
}
